\babel@toc {russian}{}
\contentsline {schapter}{Preface}{3}{chapter*.2}
\babel@toc {english}{}
\contentsline {schapter}{Introduction}{4}{chapter*.3}
\babel@toc {english}{}
\babel@toc {russian}{}
\contentsline {chapter}{\numberline {1}Microcontroller STM32}{5}{chapter.1}
\contentsline {section}{\numberline {1.1}STM32}{5}{section.1.1}
\contentsline {section}{\numberline {1.2}Uravnenie shreingera dlyz vodorodopodobnogo atoma}{6}{section.1.2}
\contentsline {section}{\numberline {1.3}CONCLUSION}{6}{section.1.3}
\contentsline {chapter}{\numberline {2}Microcontroller Omega2}{7}{chapter.2}
\contentsline {section}{\numberline {2.1}Omega2}{7}{section.2.1}
\contentsline {section}{\numberline {2.2}Yravnenie Grina-Ostrogradskogo}{8}{section.2.2}
\contentsline {section}{\numberline {2.3}CONCLUSION}{8}{section.2.3}
