\relax 
\providecommand\hyper@newdestlabel[2]{}
\catcode `"\active 
\providecommand\HyperFirstAtBeginDocument{\AtBeginDocument}
\HyperFirstAtBeginDocument{\ifx\hyper@anchor\@undefined
\global\let\oldcontentsline\contentsline
\gdef\contentsline#1#2#3#4{\oldcontentsline{#1}{#2}{#3}}
\global\let\oldnewlabel\newlabel
\gdef\newlabel#1#2{\newlabelxx{#1}#2}
\gdef\newlabelxx#1#2#3#4#5#6{\oldnewlabel{#1}{{#2}{#3}}}
\AtEndDocument{\ifx\hyper@anchor\@undefined
\let\contentsline\oldcontentsline
\let\newlabel\oldnewlabel
\fi}
\fi}
\global\let\hyper@last\relax 
\gdef\HyperFirstAtBeginDocument#1{#1}
\providecommand\HyField@AuxAddToFields[1]{}
\providecommand\HyField@AuxAddToCoFields[2]{}
\babel@aux{russian}{}
\@writefile{toc}{\contentsline {schapter}{Preface}{3}{chapter*.2}}
\babel@aux{english}{}
\@writefile{toc}{\contentsline {schapter}{Introduction}{4}{chapter*.3}}
\babel@aux{english}{}
\babel@aux{russian}{}
\@writefile{toc}{\contentsline {chapter}{\numberline {1}Microcontroller STM32}{5}{chapter.1}}
\@writefile{toc}{\contentsline {section}{\numberline {1.1}STM32}{5}{section.1.1}}
\@writefile{lof}{\contentsline {figure}{\numberline {1.1}{\ignorespaces Microcontroler STM32.}}{5}{figure.1.1}}
\@writefile{toc}{\contentsline {section}{\numberline {1.2}Uravnenie shreingera dlyz vodorodopodobnogo atoma}{6}{section.1.2}}
\newlabel{eq1}{{1.1}{6}{Uravnenie shreingera dlyz vodorodopodobnogo atoma}{equation.1.2.1}{}}
\@writefile{toc}{\contentsline {section}{\numberline {1.3}CONCLUSION}{6}{section.1.3}}
\@writefile{toc}{\contentsline {chapter}{\numberline {2}Microcontroller Omega2}{7}{chapter.2}}
\@writefile{toc}{\contentsline {section}{\numberline {2.1}Omega2}{7}{section.2.1}}
\@writefile{lof}{\contentsline {figure}{\numberline {2.1}{\ignorespaces Microcontroler OMEGA2.}}{7}{figure.2.1}}
\@writefile{toc}{\contentsline {section}{\numberline {2.2}Yravnenie Grina-Ostrogradskogo}{8}{section.2.2}}
\@writefile{toc}{\contentsline {section}{\numberline {2.3}CONCLUSION}{8}{section.2.3}}
